[gd_scene load_steps=5 format=2]

[ext_resource path="res://encounter/CombatEncounter.tscn" type="PackedScene" id=1]
[ext_resource path="res://characters/swordsman/Swordsman.tscn" type="PackedScene" id=2]
[ext_resource path="res://encounter/03-watch-your-back/Encounter.tscn" type="PackedScene" id=3]
[ext_resource path="res://characters/slime/Slime.tscn" type="PackedScene" id=5]

[node name="Encounter" instance=ExtResource( 1 )]

[node name="Swordsman" parent="Stage/Characters" index="1" instance=ExtResource( 2 )]
position = Vector2( -8, 113 )

[node name="Spawn" type="Position2D" parent="Stage/Characters" index="2"]
position = Vector2( 304, 113 )

[node name="GameOver" parent="HUD" index="1"]
color = Color( 0.0784314, 0.0470588, 0.109804, 0 )

[node name="Waves" parent="Events" index="1"]
monsters = [ null, ExtResource( 5 ), ExtResource( 5 ), ExtResource( 5 ) ]
spawn_paths = [ NodePath("../../Stage/Characters/Spawn"), NodePath("../../Stage/Characters/Spawn"), NodePath("../../Stage/Characters/Spawn"), NodePath("../../Stage/Characters/Spawn") ]
delays = [ 2.0, 3.0, 3.0, 0.0 ]

[node name="Departure" parent="Events" index="2"]
next_encounter = ExtResource( 3 )

[editable path="Stage"]
