[gd_scene load_steps=6 format=2]

[ext_resource path="res://assets/bgm/Visager_-_03_-_Forest_Fanfare_Loop.ogg" type="AudioStream" id=1]
[ext_resource path="res://assets/bgm/Visager_-_13_-_The_Great_Forest_Loop.ogg" type="AudioStream" id=2]
[ext_resource path="res://assets/bgm/Visager_-_28_-_Miniboss_Fight_Loop.ogg" type="AudioStream" id=3]
[ext_resource path="res://assets/bgm/Visager_-_22_-_Battle_Loop.ogg" type="AudioStream" id=4]
[ext_resource path="res://bgm/BGM.gd" type="Script" id=5]

[node name="BGM" type="Node"]
script = ExtResource( 5 )

[node name="Stride" type="AudioStreamPlayer" parent="."]
stream = ExtResource( 1 )
bus = "BGM"

[node name="Title" type="AudioStreamPlayer" parent="."]
stream = ExtResource( 2 )
bus = "BGM"

[node name="Combat" type="AudioStreamPlayer" parent="."]
stream = ExtResource( 4 )
bus = "BGM"

[node name="Boss" type="AudioStreamPlayer" parent="."]
stream = ExtResource( 3 )
bus = "BGM"

[node name="FadeIn" type="Tween" parent="."]

[node name="FadeOut" type="Tween" parent="."]
