[gd_scene load_steps=3 format=2]

[ext_resource path="res://characters/shooter/Bullet.tscn" type="PackedScene" id=1]

[sub_resource type="RectangleShape2D" id=1]
extents = Vector2( 4, 4 )

[node name="Spore" instance=ExtResource( 1 )]

[node name="Sprite" type="Polygon2D" parent="." index="0"]
color = Color( 0.427451, 0.666667, 0.172549, 1 )
polygon = PoolVector2Array( -8, 0, 0, -8, 8, 0, 0, 8 )

[node name="CollisionShape2D" type="CollisionShape2D" parent="." index="1"]
shape = SubResource( 1 )
