[gd_scene load_steps=6 format=2]

[ext_resource path="res://encounter/hud/skill/Skill.tscn" type="PackedScene" id=1]
[ext_resource path="res://encounter/hud/skill/bless/Effect.gd" type="Script" id=2]
[ext_resource path="res://characters/properties/bless/Bless.tscn" type="PackedScene" id=3]
[ext_resource path="res://assets/sprites/bless_icon.png" type="Texture" id=4]

[sub_resource type="AtlasTexture" id=1]
atlas = ExtResource( 4 )
region = Rect2( 8, 10, 32, 32 )

[node name="Bless" instance=ExtResource( 1 )]
cooldown_duration = 8.0

[node name="Icon" parent="." index="1"]
texture = SubResource( 1 )

[node name="Effect" type="Node" parent="." index="5"]
script = ExtResource( 2 )
bless_scn = ExtResource( 3 )
[connection signal="successfully_cast" from="Effect" to="." method="cooldown"]
